{
    "statement-list" : [
        {
            "operator" : "equal",
            "arguments" : [
                {
                    "variable" : "x0"
                  },
                1
              ]
          },
        {
            "operator" : "equal",
            "arguments" : [
                {
                    "variable" : "x1"
                  },
                2
              ]
          },
        {
            "operator" : "equal",
            "arguments" : [
                {
                    "variable" : "x2"
                  },
                {
                    "operator" : "set",
                    "arguments" : [
                        {
                            "variable" : "x0"
                          },
                        {
                            "variable" : "x1"
                          }
                      ]
                  }
              ]
          },
        {
            "operator" : "equal",
            "arguments" : [
                {
                    "variable" : "x3"
                  },
                {
                    "operator" : "set",
                    "arguments" : [
                        {
                            "operator" : "tuple",
                            "arguments" : [
                                1,
                                2
                              ]
                          },
                        {
                            "operator" : "tuple",
                            "arguments" : [
                                3,
                                4
                              ]
                          }
                      ]
                  }
              ]
          },
        {
            "operator" : "equal",
            "arguments" : [
                {
                    "variable" : "x4"
                  },
                {
                    "operator" : "is-function",
                    "arguments" : [
                        {
                            "variable" : "x2"
                          }
                      ]
                  }
              ]
          },
        {
            "operator" : "equal",
            "arguments" : [
                {
                    "variable" : "x5"
                  },
                {
                    "operator" : "is-function",
                    "arguments" : [
                        {
                            "variable" : "x3"
                          }
                      ]
                  }
              ]
          },
        {
            "operator" : "equal",
            "arguments" : [
                {
                    "variable" : "x6"
                  },
                {
                    "operator" : "equal",
                    "arguments" : [
                        {
                            "variable" : "x2"
                          },
                        {
                            "operator" : "set",
                            "arguments" : [
                                {
                                    "variable" : "x0"
                                  },
                                2
                              ]
                          }
                      ]
                  }
              ]
          },
        {
            "operator" : "equal",
            "arguments" : [
                {
                    "variable" : "x7"
                  },
                {
                    "operator" : "apply-function",
                    "arguments" : [
                        {
                            "variable" : "x3"
                          },
                        {
                            "variable" : "x0"
                          }
                      ]
                  }
              ]
          },
        {
            "operator" : "equal",
            "arguments" : [
                {
                    "variable" : "x8"
                  },
                {
                    "operator" : "tuple",
                    "arguments" : [
                        {
                            "operator" : "tuple",
                            "arguments" : [
                                0,
                                1
                              ]
                          },
                        {
                            "operator" : "tuple",
                            "arguments" : [
                                3,
                                {
                                    "operator" : "tuple",
                                    "arguments" : [
                                        4,
                                        5
                                      ]
                                  }
                              ]
                          }
                      ]
                  }
              ]
          },
        {
            "operator" : "equal",
            "arguments" : [
                {
                    "variable" : "x9"
                  },
                {
                    "operator" : "set",
                    "arguments" : [
                        {
                            "variable" : "x8"
                          }
                      ]
                  }
              ]
          },
        {
            "operator" : "equal",
            "arguments" : [
                {
                    "variable" : "x10"
                  },
                {
                    "operator" : "set",
                    "arguments" : [
                        {
                            "operator" : "tuple",
                            "arguments" : [
                                0,
                                4
                              ]
                          },
                        {
                            "operator" : "tuple",
                            "arguments" : [
                                1,
                                6
                              ]
                          },
                        {
                            "operator" : "tuple",
                            "arguments" : [
                                2,
                                1
                              ]
                          }
                      ]
                  }
              ]
          },
        {
            "operator" : "equal",
            "arguments" : [
                {
                    "variable" : "x11"
                  },
                {
                    "operator" : "apply-function",
                    "arguments" : [
                        {
                            "variable" : "x3"
                          },
                        {
                            "variable" : "x1"
                          }
                      ]
                  }
              ]
          },
        {
            "operator" : "equal",
            "arguments" : [
                {
                    "variable" : "x12"
                  },
                -1
              ]
          },
        {
            "operator" : "equal",
            "arguments" : [
                {
                    "variable" : "x13"
                  },
                {
                    "operator" : "member",
                    "arguments" : [
                        {
                            "variable" : "x12"
                          },
                        {
                            "variable" : "x2"
                          }
                      ]
                  }
              ]
          },
        {
            "operator" : "equal",
            "arguments" : [
                {
                    "variable" : "x14"
                  },
                {
                    "operator" : "member",
                    "arguments" : [
                        {
                            "variable" : "x0"
                          },
                        {
                            "variable" : "x2"
                          }
                      ]
                  }
              ]
          },
        {
            "operator" : "equal",
            "arguments" : [
                {
                    "variable" : "x15"
                  },
                {
                    "operator" : "equal",
                    "arguments" : [
                        {
                            "variable" : "x2"
                          },
                        {
                            "operator" : "set",
                            "arguments" : [
                                {
                                    "variable" : "x0"
                                  },
                                {
                                    "variable" : "x1"
                                  },
                                {
                                    "variable" : "x1"
                                  }
                              ]
                          }
                      ]
                  }
              ]
          },
        {
            "operator" : "equal",
            "arguments" : [
                {
                    "variable" : "x16"
                  },
                {
                    "operator" : "apply-function",
                    "arguments" : [
                        {
                            "variable" : "x8"
                          },
                        {
                            "operator" : "tuple",
                            "arguments" : [
                                0,
                                {
                                    "operator" : "apply-function",
                                    "arguments" : [
                                        {
                                            "variable" : "x10"
                                          },
                                        2
                                      ]
                                  }
                              ]
                          }
                      ]
                  }
              ]
          },
        {
            "operator" : "equal",
            "arguments" : [
                {
                    "variable" : "x17"
                  },
                {
                    "operator" : "apply-function",
                    "arguments" : [
                        {
                            "variable" : "x9"
                          },
                        {
                            "operator" : "tuple",
                            "arguments" : [
                                0,
                                {
                                    "operator" : "apply-function",
                                    "arguments" : [
                                        {
                                            "variable" : "x10"
                                          },
                                        2
                                      ]
                                  }
                              ]
                          }
                      ]
                  }
              ]
          },
        {
            "operator" : "equal",
            "arguments" : [
                {
                    "variable" : "x20"
                  },
                {
                    "operator" : "set",
                    "arguments" : [
                        {
                            "operator" : "tuple",
                            "arguments" : [
                                1,
                                2
                              ]
                          },
                        {
                            "operator" : "tuple",
                            "arguments" : [
                                3,
                                4
                              ]
                          },
                        {
                            "operator" : "tuple",
                            "arguments" : [
                                5,
                                6
                              ]
                          }
                      ]
                  }
              ]
          },
        {
            "operator" : "equal",
            "arguments" : [
                {
                    "variable" : "x21"
                  },
                {
                    "operator" : "is-function",
                    "arguments" : [
                        {
                            "operator" : "tuple",
                            "arguments" : [
                                1,
                                2
                              ]
                          }
                      ]
                  }
              ]
          },
        {
            "operator" : "equal",
            "arguments" : [
                {
                    "variable" : "x22"
                  },
                {
                    "operator" : "is-function",
                    "arguments" : [
                        {
                            "operator" : "set",
                            "arguments" : [
                                1,
                                2
                              ]
                          }
                      ]
                  }
              ]
          },
        {
            "operator" : "equal",
            "arguments" : [
                {
                    "variable" : "x23"
                  },
                {
                    "operator" : "domain",
                    "arguments" : [
                        {
                            "variable" : "x20"
                          }
                      ]
                  }
              ]
          },
        {
            "operator" : "equal",
            "arguments" : [
                {
                    "variable" : "x24"
                  },
                {
                    "operator" : "range",
                    "arguments" : [
                        {
                            "variable" : "x20"
                          }
                      ]
                  }
              ]
          },
        {
            "operator" : "equal",
            "arguments" : [
                {
                    "variable" : "x25"
                  },
                {
                    "operator" : "intersection",
                    "arguments" : [
                        {
                            "variable" : "x20"
                          },
                        {
                            "operator" : "set",
                            "arguments" : [
                                {
                                    "operator" : "tuple",
                                    "arguments" : [
                                        5,
                                        6
                                      ]
                                  }
                              ]
                          }
                      ]
                  }
              ]
          },
        {
            "operator" : "equal",
            "arguments" : [
                {
                    "variable" : "x26"
                  },
                {
                    "operator" : "union",
                    "arguments" : [
                        {
                            "variable" : "x20"
                          },
                        {
                            "operator" : "set",
                            "arguments" : [
                                {
                                    "operator" : "tuple",
                                    "arguments" : [
                                        7,
                                        8
                                      ]
                                  }
                              ]
                          }
                      ]
                  }
              ]
          },
        {
            "operator" : "equal",
            "arguments" : [
                {
                    "variable" : "x27"
                  },
                {
                    "operator" : "set-difference",
                    "arguments" : [
                        {
                            "variable" : "x20"
                          },
                        {
                            "operator" : "set",
                            "arguments" : [
                                {
                                    "operator" : "tuple",
                                    "arguments" : [
                                        3,
                                        4
                                      ]
                                  }
                              ]
                          }
                      ]
                  }
              ]
          },
        {
            "operator" : "equal",
            "arguments" : [
                {
                    "variable" : "x28"
                  },
                {
                    "operator" : "inverse",
                    "arguments" : [
                        {
                            "variable" : "x20"
                          }
                      ]
                  }
              ]
          },
        {
            "operator" : "equal",
            "arguments" : [
                {
                    "variable" : "x29"
                  },
                {
                    "operator" : "is-injective",
                    "arguments" : [
                        {
                            "variable" : "x2"
                          }
                      ]
                  }
              ]
          },
        {
            "operator" : "equal",
            "arguments" : [
                {
                    "variable" : "x30"
                  },
                {
                    "operator" : "is-injective",
                    "arguments" : [
                        {
                            "operator" : "set",
                            "arguments" : [
                                {
                                    "operator" : "tuple",
                                    "arguments" : [
                                        1,
                                        2
                                      ]
                                  },
                                {
                                    "operator" : "tuple",
                                    "arguments" : [
                                        2,
                                        2
                                      ]
                                  },
                                {
                                    "operator" : "tuple",
                                    "arguments" : [
                                        3,
                                        3
                                      ]
                                  }
                              ]
                          }
                      ]
                  }
              ]
          },
        {
            "operator" : "equal",
            "arguments" : [
                {
                    "variable" : "x40"
                  },
                {
                    "operator" : "set",
                    "arguments" : [
                        {
                            "operator" : "tuple",
                            "arguments" : [
                                1,
                                2
                              ]
                          },
                        {
                            "operator" : "tuple",
                            "arguments" : [
                                2,
                                3
                              ]
                          },
                        {
                            "operator" : "tuple",
                            "arguments" : [
                                3,
                                4
                              ]
                          }
                      ]
                  }
              ]
          },
        {
            "operator" : "equal",
            "arguments" : [
                {
                    "variable" : "x41"
                  },
                2
              ]
          },
        {
            "operator" : "equal",
            "arguments" : [
                {
                    "variable" : "x42"
                  },
                {
                    "operator" : "apply-function",
                    "arguments" : [
                        {
                            "variable" : "x20"
                          },
                        {
                            "variable" : "x21"
                          }
                      ]
                  }
              ]
          },
        {
            "operator" : "equal",
            "arguments" : [
                {
                    "variable" : "x43"
                  },
                {
                    "operator" : "inverse",
                    "arguments" : [
                        {
                            "variable" : "x20"
                          }
                      ]
                  }
              ]
          },
        {
            "operator" : "equal",
            "arguments" : [
                {
                    "variable" : "x44"
                  },
                {
                    "operator" : "apply-function",
                    "arguments" : [
                        {
                            "variable" : "x23"
                          },
                        {
                            "variable" : "x22"
                          }
                      ]
                  }
              ]
          },
        {
            "operator" : "equal",
            "arguments" : [
                {
                    "variable" : "x50"
                  },
                {
                    "operator" : "is-function",
                    "arguments" : [
                        {
                            "operator" : "set",
                            "arguments" : [
                                {
                                    "operator" : "tuple",
                                    "arguments" : [
                                        1,
                                        2
                                      ]
                                  },
                                {
                                    "operator" : "tuple",
                                    "arguments" : [
                                        1,
                                        3
                                      ]
                                  }
                              ]
                          }
                      ]
                  }
              ]
          },
        {
            "operator" : "equal",
            "arguments" : [
                {
                    "variable" : "x60"
                  },
                {
                    "operator" : "diagonalize",
                    "arguments" : [
                        {
                            "operator" : "set",
                            "arguments" : [
                                {
                                    "operator" : "tuple",
                                    "arguments" : [
                                        0,
                                        {
                                            "operator" : "set",
                                            "arguments" : [
                                                {
                                                    "operator" : "tuple",
                                                    "arguments" : [
                                                        0,
                                                        1
                                                      ]
                                                  }
                                              ]
                                          }
                                      ]
                                  },
                                {
                                    "operator" : "tuple",
                                    "arguments" : [
                                        1,
                                        {
                                            "operator" : "set",
                                            "arguments" : [
                                                {
                                                    "operator" : "tuple",
                                                    "arguments" : [
                                                        1,
                                                        2
                                                      ]
                                                  }
                                              ]
                                          }
                                      ]
                                  },
                                {
                                    "operator" : "tuple",
                                    "arguments" : [
                                        2,
                                        {
                                            "operator" : "set",
                                            "arguments" : [
                                                {
                                                    "operator" : "tuple",
                                                    "arguments" : [
                                                        0,
                                                        0
                                                      ]
                                                  }
                                              ]
                                          }
                                      ]
                                  }
                              ]
                          },
                        {
                            "operator" : "set",
                            "arguments" : [
                                {
                                    "operator" : "tuple",
                                    "arguments" : [
                                        0,
                                        99
                                      ]
                                  },
                                {
                                    "operator" : "tuple",
                                    "arguments" : [
                                        1,
                                        0
                                      ]
                                  },
                                {
                                    "operator" : "tuple",
                                    "arguments" : [
                                        2,
                                        0
                                      ]
                                  }
                              ]
                          },
                        9000
                      ]
                  }
              ]
          },
        {
            "operator" : "equal",
            "arguments" : [
                {
                    "variable" : "x61"
                  },
                {
                    "operator" : "set",
                    "arguments" : [
                        {
                            "operator" : "tuple",
                            "arguments" : [
                                3,
                                {
                                    "operator" : "set",
                                    "arguments" : [
                                        {
                                            "operator" : "tuple",
                                            "arguments" : [
                                                3,
                                                {
                                                    "operator" : "tuple",
                                                    "arguments" : [
                                                        1,
                                                        7
                                                      ]
                                                  }
                                              ]
                                          }
                                      ]
                                  }
                              ]
                          },
                        {
                            "operator" : "tuple",
                            "arguments" : [
                                2,
                                {
                                    "operator" : "set",
                                    "arguments" : [
                                        {
                                            "operator" : "tuple",
                                            "arguments" : [
                                                17,
                                                {
                                                    "operator" : "tuple",
                                                    "arguments" : [
                                                        4,
                                                        6
                                                      ]
                                                  }
                                              ]
                                          }
                                      ]
                                  }
                              ]
                          }
                      ]
                  }
              ]
          },
        {
            "operator" : "equal",
            "arguments" : [
                {
                    "variable" : "x62"
                  },
                {
                    "operator" : "set",
                    "arguments" : [
                        {
                            "operator" : "tuple",
                            "arguments" : [
                                {
                                    "operator" : "tuple",
                                    "arguments" : [
                                        1,
                                        7
                                      ]
                                  },
                                {
                                    "operator" : "set",
                                    "arguments" : [
                                        3
                                      ]
                                  }
                              ]
                          },
                        {
                            "operator" : "tuple",
                            "arguments" : [
                                {
                                    "operator" : "tuple",
                                    "arguments" : [
                                        4,
                                        6
                                      ]
                                  },
                                {
                                    "operator" : "set",
                                    "arguments" : [
                                        5
                                      ]
                                  }
                              ]
                          }
                      ]
                  }
              ]
          },
        {
            "operator" : "equal",
            "arguments" : [
                {
                    "variable" : "x63"
                  },
                9
              ]
          },
        {
            "operator" : "equal",
            "arguments" : [
                {
                    "variable" : "x64"
                  },
                {
                    "operator" : "diagonalize",
                    "arguments" : [
                        {
                            "variable" : "x61"
                          },
                        {
                            "variable" : "x62"
                          },
                        {
                            "variable" : "x63"
                          }
                      ]
                  }
              ]
          },
        {
            "operator" : "equal",
            "arguments" : [
                {
                    "variable" : "x65"
                  },
                {
                    "operator" : "set",
                    "arguments" : [
                        {
                            "operator" : "tuple",
                            "arguments" : [
                                3,
                                {
                                    "operator" : "set",
                                    "arguments" : [
                                        {
                                            "operator" : "tuple",
                                            "arguments" : [
                                                3,
                                                1
                                              ]
                                          }
                                      ]
                                  }
                              ]
                          },
                        {
                            "operator" : "tuple",
                            "arguments" : [
                                2,
                                {
                                    "operator" : "set",
                                    "arguments" : [
                                        {
                                            "operator" : "tuple",
                                            "arguments" : [
                                                2,
                                                4
                                              ]
                                          }
                                      ]
                                  }
                              ]
                          },
                        {
                            "operator" : "tuple",
                            "arguments" : [
                                4,
                                {
                                    "operator" : "set",
                                    "arguments" : [
                                        {
                                            "operator" : "tuple",
                                            "arguments" : [
                                                4,
                                                6
                                              ]
                                          }
                                      ]
                                  }
                              ]
                          }
                      ]
                  }
              ]
          },
        {
            "operator" : "equal",
            "arguments" : [
                {
                    "variable" : "x66"
                  },
                {
                    "operator" : "set",
                    "arguments" : [
                        {
                            "operator" : "tuple",
                            "arguments" : [
                                1,
                                {
                                    "operator" : "set",
                                    "arguments" : [
                                        3
                                      ]
                                  }
                              ]
                          },
                        {
                            "operator" : "tuple",
                            "arguments" : [
                                6,
                                {
                                    "operator" : "set",
                                    "arguments" : [
                                        5
                                      ]
                                  }
                              ]
                          }
                      ]
                  }
              ]
          },
        {
            "operator" : "equal",
            "arguments" : [
                {
                    "variable" : "x67"
                  },
                {
                    "operator" : "diagonalize",
                    "arguments" : [
                        {
                            "variable" : "x65"
                          },
                        {
                            "variable" : "x66"
                          },
                        99
                      ]
                  }
              ]
          }
      ]
  }
